All connections between all procs tested: SUCCESS
 argument  1 = cosmo_h2cco2mg.nw



============================== echo of input deck ==============================
echo

start h2cco2mg_dat

geometry
    symmetry c1
    mg     0.00000000     0.00000000    -1.54656110
    o      0.00000000    -1.11909860    -0.09529177
    o      0.00000000     1.11909860    -0.09529177
    c      0.00000000     0.00000000     0.66838924
    c      0.00000000     0.00000000     1.99717688
    h      0.00000000    -0.92756722     2.53578926
    h      0.00000000     0.92756722     2.53578926
end

basis
  * library 6-31g*
end

cosmo
# minbem 3
# maxbem 5
end

scf
  print forces
end

task scf gradient
================================================================================


                                         
                                         


              Northwest Computational Chemistry Package (NWChem) 6.3
              ------------------------------------------------------


                    Environmental Molecular Sciences Laboratory
                       Pacific Northwest National Laboratory
                                Richland, WA 99352

                              Copyright (c) 1994-2013
                       Pacific Northwest National Laboratory
                            Battelle Memorial Institute

             NWChem is an open-source computational chemistry package
                        distributed under the terms of the
                      Educational Community License (ECL) 2.0
             A copy of the license is included with this distribution
                              in the LICENSE.TXT file

                                  ACKNOWLEDGMENT
                                  --------------

            This software and its documentation were developed at the
            EMSL at Pacific Northwest National Laboratory, a multiprogram
            national laboratory, operated for the U.S. Department of Energy
            by Battelle under Contract Number DE-AC05-76RL01830. Support
            for this work was provided by the Department of Energy Office
            of Biological and Environmental Research, Office of Basic
            Energy Sciences, and the Office of Advanced Scientific Computing.


           Job information
           ---------------

    hostname        = arcen
    program         = /home/d3y133/nwchem-dev/nwchem-dev-2013-10-16/QA/../bin/LINUX64/nwchem
    date            = Wed Oct 23 14:02:46 2013

    compiled        = Wed_Oct_23_13:57:40_2013
    source          = /home/d3y133/nwchem-dev/nwchem-dev-2013-10-16
    nwchem branch   = Development
    nwchem revision = 24691
    ga revision     = 10432
    input           = cosmo_h2cco2mg.nw
    prefix          = h2cco2mg_dat.
    data base       = /home/d3y133/nwchem-dev/nwchem-dev-2013-10-16/QA/scratchdir/h2cco2mg_dat.db
    status          = startup
    nproc           =        4
    time left       =     -1s



           Memory information
           ------------------

    heap     =   13107201 doubles =    100.0 Mbytes
    stack    =   13107201 doubles =    100.0 Mbytes
    global   =   26214400 doubles =    200.0 Mbytes (distinct from heap & stack)
    total    =   52428802 doubles =    400.0 Mbytes
    verify   = yes
    hardfail = no 


           Directory information
           ---------------------

  0 permanent = /home/d3y133/nwchem-dev/nwchem-dev-2013-10-16/QA/scratchdir
  0 scratch   = /home/d3y133/nwchem-dev/nwchem-dev-2013-10-16/QA/scratchdir




                                NWChem Input Module
                                -------------------



 Scaling coordinates for geometry "geometry" by  1.889725989
 (inverse scale =  0.529177249)

 Turning off AUTOSYM since
 SYMMETRY directive was detected!


          ------
          auto-z
          ------


                             Geometry "geometry" -> ""
                             -------------------------

 Output coordinates in angstroms (scale by  1.889725989 to convert to a.u.)

  No.       Tag          Charge          X              Y              Z
 ---- ---------------- ---------- -------------- -------------- --------------
    1 mg                  12.0000     0.00000000     0.00000000    -1.56993190
    2 o                    8.0000     0.00000000    -1.11909860    -0.11866257
    3 o                    8.0000     0.00000000     1.11909860    -0.11866257
    4 c                    6.0000     0.00000000     0.00000000     0.64501844
    5 c                    6.0000     0.00000000     0.00000000     1.97380608
    6 h                    1.0000     0.00000000    -0.92756722     2.51241846
    7 h                    1.0000     0.00000000     0.92756722     2.51241846

      Atomic Mass 
      ----------- 

      mg                23.985040
      o                 15.994910
      c                 12.000000
      h                  1.007825


 Effective nuclear repulsion energy (a.u.)     189.8004546191

            Nuclear Dipole moment (a.u.) 
            ----------------------------
        X                 Y               Z
 ---------------- ---------------- ----------------
     0.0000000000     0.0000000000     0.0000000000



                                Z-matrix (autoz)
                                -------- 

 Units are Angstrom for bonds and degrees for angles

      Type          Name      I     J     K     L     M      Value
      ----------- --------  ----- ----- ----- ----- ----- ----------
    1 Stretch                  1     2                       1.83264
    2 Stretch                  1     3                       1.83264
    3 Stretch                  1     4                       2.21495
    4 Stretch                  2     4                       1.35484
    5 Stretch                  3     4                       1.35484
    6 Stretch                  4     5                       1.32879
    7 Stretch                  5     6                       1.07261
    8 Stretch                  5     7                       1.07261
    9 Bend                     1     2     4                86.67348
   10 Bend                     1     3     4                86.67348
   11 Bend                     1     4     2                55.69009
   12 Bend                     1     4     3                55.69009
   13 Bend                     2     1     3                75.27286
   14 Bend                     2     1     4                37.63643
   15 Bend                     2     4     3               111.38018
   16 Bend                     2     4     5               124.30991
   17 Bend                     3     1     4                37.63643
   18 Bend                     3     4     5               124.30991
   19 Bend                     4     5     6               120.14254
   20 Bend                     4     5     7               120.14254
   21 Bend                     6     5     7               119.71492
   22 Torsion                  1     2     4     3           0.00000
   23 Torsion                  1     2     4     5         180.00000
   24 Torsion                  1     3     4     2           0.00000
   25 Torsion                  1     3     4     5         180.00000
   26 Torsion                  2     1     3     4           0.00000
   27 Torsion                  2     1     4     3         180.00000
   28 Torsion                  2     1     5     6           0.00000
   29 Torsion                  2     1     5     7         180.00000
   30 Torsion                  2     4     1     3         180.00000
   31 Torsion                  2     4     5     6           0.00000
   32 Torsion                  2     4     5     7         180.00000
   33 Torsion                  3     1     2     4           0.00000
   34 Torsion                  3     1     5     6         180.00000
   35 Torsion                  3     1     5     7           0.00000
   36 Torsion                  3     4     5     6         180.00000
   37 Torsion                  3     4     5     7           0.00000
   38 Torsion                  1     4     6     5         180.00000
   39 Torsion                  1     4     7     5         180.00000


            XYZ format geometry
            -------------------
     7
 geometry
 mg                    0.00000000     0.00000000    -1.56993190
 o                     0.00000000    -1.11909860    -0.11866257
 o                     0.00000000     1.11909860    -0.11866257
 c                     0.00000000     0.00000000     0.64501844
 c                     0.00000000     0.00000000     1.97380608
 h                     0.00000000    -0.92756722     2.51241846
 h                     0.00000000     0.92756722     2.51241846

 ==============================================================================
                                internuclear distances
 ------------------------------------------------------------------------------
       center one      |      center two      | atomic units |  angstroms
 ------------------------------------------------------------------------------
    2 o                |   1 mg               |     3.46318  |     1.83264
    3 o                |   1 mg               |     3.46318  |     1.83264
    4 c                |   1 mg               |     4.18565  |     2.21495
    4 c                |   2 o                |     2.56028  |     1.35484
    4 c                |   3 o                |     2.56028  |     1.35484
    5 c                |   4 c                |     2.51104  |     1.32879
    6 h                |   5 c                |     2.02693  |     1.07261
    7 h                |   5 c                |     2.02693  |     1.07261
 ------------------------------------------------------------------------------
                         number of included internuclear distances:          8
 ==============================================================================



 ==============================================================================
                                 internuclear angles
 ------------------------------------------------------------------------------
        center 1       |       center 2       |       center 3       |  degrees
 ------------------------------------------------------------------------------
    2 o                |   1 mg               |   3 o                |    75.27
    1 mg               |   2 o                |   4 c                |    86.67
    1 mg               |   3 o                |   4 c                |    86.67
    1 mg               |   2 o                |   4 c                |    86.67
    1 mg               |   3 o                |   4 c                |    86.67
    4 c                |   2 o                |   1 mg               |    86.67
    4 c                |   3 o                |   1 mg               |    86.67
    1 mg               |   4 c                |   5 c                |   180.00
    2 o                |   4 c                |   3 o                |   111.38
    2 o                |   4 c                |   5 c                |   124.31
    3 o                |   4 c                |   5 c                |   124.31
    4 c                |   5 c                |   6 h                |   120.14
    4 c                |   5 c                |   7 h                |   120.14
    6 h                |   5 c                |   7 h                |   119.71
 ------------------------------------------------------------------------------
                            number of included internuclear angles:         14
 ==============================================================================



  library name resolved from: environment
  library file name is: </home/d3y133/nwchem-dev/nwchem-dev-2013-10-16/QA/../src/basis/libraries/>
  


 Summary of "ao basis" -> "" (cartesian)
 ------------------------------------------------------------------------------
       Tag                 Description            Shells   Functions and Types
 ---------------- ------------------------------  ------  ---------------------
 *                           6-31g*                   on all atoms 


                      Basis "ao basis" -> "ao basis" (cartesian)
                      -----
  mg (Magnesium)
  --------------
            Exponent  Coefficients 
       -------------- ---------------------------------------------------------
  1 S  1.17228000E+04  0.001978
  1 S  1.75993000E+03  0.015114
  1 S  4.00846000E+02  0.073911
  1 S  1.12807000E+02  0.249191
  1 S  3.59997000E+01  0.487928
  1 S  1.21828000E+01  0.319662

  2 S  1.89180000E+02 -0.003237
  2 S  4.52119000E+01 -0.041008
  2 S  1.43563000E+01 -0.112600
  2 S  5.13886000E+00  0.148633
  2 S  1.90652000E+00  0.616497
  2 S  7.05887000E-01  0.364829

  3 P  1.89180000E+02  0.004928
  3 P  4.52119000E+01  0.034989
  3 P  1.43563000E+01  0.140725
  3 P  5.13886000E+00  0.333642
  3 P  1.90652000E+00  0.444940
  3 P  7.05887000E-01  0.269254

  4 S  9.29340000E-01 -0.212290
  4 S  2.69035000E-01 -0.107985
  4 S  1.17379000E-01  1.175840

  5 P  9.29340000E-01 -0.022419
  5 P  2.69035000E-01  0.192270
  5 P  1.17379000E-01  0.846181

  6 S  4.21061000E-02  1.000000

  7 P  4.21061000E-02  1.000000

  8 D  1.75000000E-01  1.000000

  o (Oxygen)
  ----------
            Exponent  Coefficients 
       -------------- ---------------------------------------------------------
  1 S  5.48467170E+03  0.001831
  1 S  8.25234950E+02  0.013950
  1 S  1.88046960E+02  0.068445
  1 S  5.29645000E+01  0.232714
  1 S  1.68975700E+01  0.470193
  1 S  5.79963530E+00  0.358521

  2 S  1.55396160E+01 -0.110778
  2 S  3.59993360E+00 -0.148026
  2 S  1.01376180E+00  1.130767

  3 P  1.55396160E+01  0.070874
  3 P  3.59993360E+00  0.339753
  3 P  1.01376180E+00  0.727159

  4 S  2.70005800E-01  1.000000

  5 P  2.70005800E-01  1.000000

  6 D  8.00000000E-01  1.000000

  c (Carbon)
  ----------
            Exponent  Coefficients 
       -------------- ---------------------------------------------------------
  1 S  3.04752490E+03  0.001835
  1 S  4.57369510E+02  0.014037
  1 S  1.03948690E+02  0.068843
  1 S  2.92101550E+01  0.232184
  1 S  9.28666300E+00  0.467941
  1 S  3.16392700E+00  0.362312

  2 S  7.86827240E+00 -0.119332
  2 S  1.88128850E+00 -0.160854
  2 S  5.44249300E-01  1.143456

  3 P  7.86827240E+00  0.068999
  3 P  1.88128850E+00  0.316424
  3 P  5.44249300E-01  0.744308

  4 S  1.68714400E-01  1.000000

  5 P  1.68714400E-01  1.000000

  6 D  8.00000000E-01  1.000000

  h (Hydrogen)
  ------------
            Exponent  Coefficients 
       -------------- ---------------------------------------------------------
  1 S  1.87311370E+01  0.033495
  1 S  2.82539370E+00  0.234727
  1 S  6.40121700E-01  0.813757

  2 S  1.61277800E-01  1.000000



 Summary of "ao basis" -> "ao basis" (cartesian)
 ------------------------------------------------------------------------------
       Tag                 Description            Shells   Functions and Types
 ---------------- ------------------------------  ------  ---------------------
 mg                          6-31g*                  8       19   4s3p1d
 o                           6-31g*                  6       15   3s2p1d
 c                           6-31g*                  6       15   3s2p1d
 h                           6-31g*                  2        2   2s



          ---------------
          -cosmo- solvent
          ---------------
 dielectric constant -eps-     =  78.40
 charge screening approach     =   2
 screen = (eps-1)/(eps    )    =   0.98724
 -lineq- algorithm             =   1
 -bem- low  level              =   2
 -bem- high level              =   4
 -bem- from -octahedral-
 solvent radius (ang.)         =   0.000
 gaussian surface charge width =   0.98000
 degree of switching           =   1.00000
 switching function tolerance  =   0.00010
 atomic radii = 
 --------------
    1 12.000  1.638
    2  8.000  1.720
    3  8.000  1.720
    4  6.000  2.000
    5  6.000  2.000
    6  1.000  1.300
    7  1.000  1.300

 solvent accessible surface
 --------------------------

 ---------- ATOMIC COORDINATES (A.U.) ------------ VDWR(ANG.) --
     1    0.00000000    0.00000000   -2.96674112     1.638
     2    0.00000000   -2.11478971   -0.22423975     1.720
     3    0.00000000    2.11478971   -0.22423975     1.720
     4    0.00000000    0.00000000    1.21890810     2.000
     5    0.00000000    0.00000000    3.72995264     2.000
     6    0.00000000   -1.75284788    4.74778245     1.300
     7    0.00000000    1.75284788    4.74778245     1.300
 number of segments per atom =         32
 number of   points per atom =         32
 atom (   nspa,  nppa )
 ----------------------
    1 (     20,     0 )       0
    2 (     16,     0 )       0
    3 (     16,     0 )       0
    4 (     12,     0 )       0
    5 (     20,     0 )       0
    6 (     16,     0 )       0
    7 (     16,     0 )       0
 number of -cosmo- surface points =      116
 molecular surface =    104.636 angstrom**2
 molecular volume  =     61.213 angstrom**3
 G(cav/disp)       =      1.383 kcal/mol
 ...... end of -cosmo- initialization ......


                                 NWChem SCF Module
                                 -----------------



  ao basis        = "ao basis"
  functions       =    83
  atoms           =     7
  closed shells   =    21
  open shells     =     0
  charge          =   0.00
  wavefunction    = RHF 
  input vectors   = atomic
  output vectors  = /home/d3y133/nwchem-dev/nwchem-dev-2013-10-16/QA/scratchdir/h2cco2mg_dat.movecs
  use symmetry    = F
  symmetry adapt  = F


 Summary of "ao basis" -> "ao basis" (cartesian)
 ------------------------------------------------------------------------------
       Tag                 Description            Shells   Functions and Types
 ---------------- ------------------------------  ------  ---------------------
 mg                          6-31g*                  8       19   4s3p1d
 o                           6-31g*                  6       15   3s2p1d
 c                           6-31g*                  6       15   3s2p1d
 h                           6-31g*                  2        2   2s



 Forming initial guess at       1.1s


      Superposition of Atomic Density Guess
      -------------------------------------

 Sum of atomic energies:        -425.42089713

      Non-variational initial energy
      ------------------------------

 Total energy =    -427.367007
 1-e energy   =    -964.894250
 2-e energy   =     347.726788
 HOMO         =      -0.247658
 LUMO         =      -0.132064


 Starting SCF solution at       1.5s



 ----------------------------------------------
         Quadratically convergent ROHF

 Convergence threshold     :          1.000E-04
 Maximum no. of iterations :           30
 Final Fock-matrix accuracy:          1.000E-07
 ----------------------------------------------

     COSMO gas phase

 Integral file          = /home/d3y133/nwchem-dev/nwchem-dev-2013-10-16/QA/scratchdir/h2cco2mg_dat.aoints.0
 Record size in doubles =  65536        No. of integs per rec  =  43688
 Max. records in memory =     49        Max. records in file   =   5743
 No. of bits per label  =      8        No. of bits per value  =     64


 #quartets = 2.075D+05 #integrals = 2.990D+06 #direct =  0.0% #cached =100.0%


File balance: exchanges=     2  moved=     5  time=   0.0


              iter       energy          gnorm     gmax       time
             ----- ------------------- --------- --------- --------
                 1     -426.0737989481  1.44D+00  3.56D-01      1.2
                 2     -426.1819998327  3.49D-01  8.43D-02      1.3
                 3     -426.1937022197  2.40D-02  8.05D-03      1.4
                 4     -426.1938268495  4.66D-04  1.25D-04      1.5
                 5     -426.1938268931  7.29D-06  2.44D-06      1.7
     COSMO solvation phase

              iter       energy          gnorm     gmax       time
             ----- ------------------- --------- --------- --------
                 1     -426.3076096173  3.39D-01  1.21D-01      3.1
                 2     -426.3277602126  1.53D-01  3.14D-02      4.9
                 3     -426.3297985726  1.92D-02  1.02D-02      5.8
                 4     -426.3298803959  4.34D-03  2.38D-03      6.7
                 5     -426.3298844725  1.13D-03  6.14D-04      7.5
                 6     -426.3298847507  2.95D-04  1.63D-04      8.3
                 7     -426.3298847699  7.77D-05  4.37D-05      8.9
 
                  COSMO solvation results
                  -----------------------
 
                 gas phase energy =      -426.1938268931
                 sol phase energy =      -426.3298847699
 (electrostatic) solvation energy =         0.1360578768 (   85.38 kcal/mol)


       Final RHF  results 
       ------------------ 

         Total SCF energy =   -426.329884769896
      One-electron energy =   -969.071866075724
      Two-electron energy =    353.456770750778
 Nuclear repulsion energy =    189.800454619100

        Time for solution =      8.5s


             Final eigenvalues
             -----------------

              1      
    1  -48.9905
    2  -20.4966
    3  -20.4966
    4  -11.3098
    5  -11.1549
    6   -3.7342
    7   -2.2577
    8   -2.2549
    9   -2.2546
   10   -1.3494
   11   -1.2333
   12   -0.9605
   13   -0.6985
   14   -0.6107
   15   -0.6089
   16   -0.5582
   17   -0.5057
   18   -0.4649
   19   -0.4255
   20   -0.4251
   21   -0.2886
   22    0.0644
   23    0.1062
   24    0.1190
   25    0.1385
   26    0.2755
   27    0.2779
   28    0.3201
   29    0.3333
   30    0.3591
   31    0.4032

                       ROHF Final Molecular Orbital Analysis
                       -------------------------------------

 Vector   10  Occ=2.000000D+00  E=-1.349391D+00
              MO Center= -3.1D-10, -6.1D-08,  4.3D-02, r^2= 1.2D+00
   Bfn.  Coefficient  Atom+Function         Bfn.  Coefficient  Atom+Function  
  ----- ------------  ---------------      ----- ------------  ---------------
    25      0.316762  2 O  s                 40      0.316762  3 O  s          
    21      0.285833  2 O  s                 36      0.285833  3 O  s          
    51      0.214953  4 C  s          

 Vector   11  Occ=2.000000D+00  E=-1.233280D+00
              MO Center= -1.9D-10,  5.4D-08, -2.3D-02, r^2= 1.5D+00
   Bfn.  Coefficient  Atom+Function         Bfn.  Coefficient  Atom+Function  
  ----- ------------  ---------------      ----- ------------  ---------------
    25      0.402380  2 O  s                 40     -0.402380  3 O  s          
    21      0.330611  2 O  s                 36     -0.330611  3 O  s          
    53     -0.179033  4 C  py                20     -0.156528  2 O  s          
    35      0.156528  3 O  s          

 Vector   12  Occ=2.000000D+00  E=-9.604964D-01
              MO Center= -1.2D-09, -8.4D-09,  1.4D+00, r^2= 1.3D+00
   Bfn.  Coefficient  Atom+Function         Bfn.  Coefficient  Atom+Function  
  ----- ------------  ---------------      ----- ------------  ---------------
    70      0.326920  5 C  s                 66      0.316022  5 C  s          
    54      0.230996  4 C  pz                51      0.212187  4 C  s          
    65     -0.176012  5 C  s          

 Vector   13  Occ=2.000000D+00  E=-6.984825D-01
              MO Center= -3.1D-09, -5.3D-08,  8.2D-01, r^2= 3.0D+00
   Bfn.  Coefficient  Atom+Function         Bfn.  Coefficient  Atom+Function  
  ----- ------------  ---------------      ----- ------------  ---------------
    51     -0.260254  4 C  s                 25      0.238100  2 O  s          
    40      0.238100  3 O  s                 23     -0.204377  2 O  py         
    38      0.204377  3 O  py                55     -0.201850  4 C  s          
    69      0.201929  5 C  pz         

 Vector   14  Occ=2.000000D+00  E=-6.106507D-01
              MO Center= -1.7D-09, -1.6D-07,  9.1D-01, r^2= 2.6D+00
   Bfn.  Coefficient  Atom+Function         Bfn.  Coefficient  Atom+Function  
  ----- ------------  ---------------      ----- ------------  ---------------
    54      0.305796  4 C  pz                69     -0.280881  5 C  pz         
    23     -0.258763  2 O  py                38      0.258763  3 O  py         
    27     -0.182825  2 O  py                42      0.182825  3 O  py         

 Vector   15  Occ=2.000000D+00  E=-6.089257D-01
              MO Center= -6.2D-10,  1.1D-07,  6.9D-01, r^2= 2.7D+00
   Bfn.  Coefficient  Atom+Function         Bfn.  Coefficient  Atom+Function  
  ----- ------------  ---------------      ----- ------------  ---------------
    53      0.286916  4 C  py                24     -0.256738  2 O  pz         
    39      0.256738  3 O  pz                68      0.252281  5 C  py         
    28     -0.178368  2 O  pz                43      0.178368  3 O  pz         

 Vector   16  Occ=2.000000D+00  E=-5.582189D-01
              MO Center= -5.6D-09, -7.2D-08,  1.8D-01, r^2= 1.8D+00
   Bfn.  Coefficient  Atom+Function         Bfn.  Coefficient  Atom+Function  
  ----- ------------  ---------------      ----- ------------  ---------------
    22      0.334454  2 O  px                37      0.334454  3 O  px         
    52      0.276515  4 C  px                26      0.242918  2 O  px         
    41      0.242918  3 O  px         

 Vector   17  Occ=2.000000D+00  E=-5.057442D-01
              MO Center= -7.3D-10, -1.6D-08,  1.4D+00, r^2= 2.9D+00
   Bfn.  Coefficient  Atom+Function         Bfn.  Coefficient  Atom+Function  
  ----- ------------  ---------------      ----- ------------  ---------------
    68      0.335792  5 C  py                80     -0.203188  6 H  s          
    82      0.203188  7 H  s                 53     -0.199178  4 C  py         
    81     -0.185305  6 H  s                 83      0.185305  7 H  s          
    24      0.175410  2 O  pz                39     -0.175410  3 O  pz         
    23      0.169078  2 O  py                38      0.169078  3 O  py         

 Vector   18  Occ=2.000000D+00  E=-4.649463D-01
              MO Center= -2.0D-09, -9.1D-08,  2.2D-01, r^2= 2.3D+00
   Bfn.  Coefficient  Atom+Function         Bfn.  Coefficient  Atom+Function  
  ----- ------------  ---------------      ----- ------------  ---------------
    24      0.366852  2 O  pz                39      0.366852  3 O  pz         
    28      0.289007  2 O  pz                43      0.289007  3 O  pz         
    69      0.233921  5 C  pz                54     -0.227524  4 C  pz         
     6     -0.188438  1 Mg s          

 Vector   19  Occ=2.000000D+00  E=-4.255460D-01
              MO Center= -6.0D-08,  2.4D-08, -1.2D-01, r^2= 1.9D+00
   Bfn.  Coefficient  Atom+Function         Bfn.  Coefficient  Atom+Function  
  ----- ------------  ---------------      ----- ------------  ---------------
    22      0.436428  2 O  px                37     -0.436428  3 O  px         
    26      0.375703  2 O  px                41     -0.375703  3 O  px         

 Vector   20  Occ=2.000000D+00  E=-4.250617D-01
              MO Center=  5.7D-08,  1.2D-07, -2.1D-02, r^2= 2.1D+00
   Bfn.  Coefficient  Atom+Function         Bfn.  Coefficient  Atom+Function  
  ----- ------------  ---------------      ----- ------------  ---------------
    23      0.370200  2 O  py                38      0.370200  3 O  py         
    27      0.331759  2 O  py                42      0.331759  3 O  py         
    24     -0.251191  2 O  pz                39      0.251191  3 O  pz         
    28     -0.200769  2 O  pz                43      0.200769  3 O  pz         

 Vector   21  Occ=2.000000D+00  E=-2.886332D-01
              MO Center= -6.2D-09,  2.4D-08,  1.3D+00, r^2= 2.1D+00
   Bfn.  Coefficient  Atom+Function         Bfn.  Coefficient  Atom+Function  
  ----- ------------  ---------------      ----- ------------  ---------------
    71      0.441329  5 C  px                67      0.422387  5 C  px         
    52      0.216437  4 C  px                22     -0.210102  2 O  px         
    37     -0.210102  3 O  px                26     -0.198184  2 O  px         
    41     -0.198184  3 O  px         

 Vector   22  Occ=0.000000D+00  E= 6.439526D-02
              MO Center= -7.3D-08, -3.0D-07, -2.7D+00, r^2= 5.4D+00
   Bfn.  Coefficient  Atom+Function         Bfn.  Coefficient  Atom+Function  
  ----- ------------  ---------------      ----- ------------  ---------------
    10      1.159928  1 Mg s                 13     -0.428543  1 Mg pz         
     2     -0.184674  1 Mg s                  6     -0.151976  1 Mg s          

 Vector   23  Occ=0.000000D+00  E= 1.062270D-01
              MO Center= -2.0D-08, -8.9D-09, -1.7D+00, r^2= 9.3D+00
   Bfn.  Coefficient  Atom+Function         Bfn.  Coefficient  Atom+Function  
  ----- ------------  ---------------      ----- ------------  ---------------
    11      1.134919  1 Mg px                56     -0.154973  4 C  px         

 Vector   24  Occ=0.000000D+00  E= 1.190348D-01
              MO Center= -1.0D-09, -7.7D-08, -1.8D+00, r^2= 9.8D+00
   Bfn.  Coefficient  Atom+Function         Bfn.  Coefficient  Atom+Function  
  ----- ------------  ---------------      ----- ------------  ---------------
    12      1.225030  1 Mg py                 8     -0.225285  1 Mg py         

 Vector   25  Occ=0.000000D+00  E= 1.384618D-01
              MO Center=  9.0D-08,  3.3D-07, -8.1D-01, r^2= 1.0D+01
   Bfn.  Coefficient  Atom+Function         Bfn.  Coefficient  Atom+Function  
  ----- ------------  ---------------      ----- ------------  ---------------
    13      1.379554  1 Mg pz                10      1.116273  1 Mg s          
    55     -0.478439  4 C  s                  6     -0.438870  1 Mg s          
    70     -0.322979  5 C  s                  9     -0.274151  1 Mg pz         
    25     -0.227784  2 O  s                 40     -0.227784  3 O  s          
    58      0.170153  4 C  pz         

 Vector   26  Occ=0.000000D+00  E= 2.755199D-01
              MO Center= -4.0D-08,  1.4D-08,  9.8D-01, r^2= 2.4D+00
   Bfn.  Coefficient  Atom+Function         Bfn.  Coefficient  Atom+Function  
  ----- ------------  ---------------      ----- ------------  ---------------
    56      0.843795  4 C  px                71     -0.700625  5 C  px         
    52      0.487430  4 C  px                26     -0.302836  2 O  px         
    41     -0.302836  3 O  px                67     -0.240556  5 C  px         
     7     -0.192113  1 Mg px                22     -0.190507  2 O  px         
    37     -0.190507  3 O  px                11      0.156366  1 Mg px         

 Vector   27  Occ=0.000000D+00  E= 2.778763D-01
              MO Center=  1.8D-08, -7.6D-08, -2.4D+00, r^2= 4.9D+00
   Bfn.  Coefficient  Atom+Function         Bfn.  Coefficient  Atom+Function  
  ----- ------------  ---------------      ----- ------------  ---------------
    10     -1.489284  1 Mg s                  6      1.447590  1 Mg s          
     9     -0.669847  1 Mg pz                13      0.367125  1 Mg pz         
    14      0.207465  1 Mg dxx               58     -0.191386  4 C  pz         

 Vector   28  Occ=0.000000D+00  E= 3.200889D-01
              MO Center= -1.2D-09, -1.3D-06,  2.5D+00, r^2= 3.9D+00
   Bfn.  Coefficient  Atom+Function         Bfn.  Coefficient  Atom+Function  
  ----- ------------  ---------------      ----- ------------  ---------------
    70      2.074753  5 C  s                 81     -1.570521  6 H  s          
    83     -1.570519  7 H  s                 73      0.874473  5 C  pz         
    13      0.229232  1 Mg pz                69      0.209979  5 C  pz         
    55      0.168550  4 C  s          

 Vector   29  Occ=0.000000D+00  E= 3.333065D-01
              MO Center= -4.5D-10,  1.3D-06,  2.1D+00, r^2= 5.0D+00
   Bfn.  Coefficient  Atom+Function         Bfn.  Coefficient  Atom+Function  
  ----- ------------  ---------------      ----- ------------  ---------------
    81      1.715344  6 H  s                 83     -1.715346  7 H  s          
    72      1.675847  5 C  py                 8      0.467003  1 Mg py         
    57     -0.307371  4 C  py                68      0.287849  5 C  py         
    12     -0.268953  1 Mg py                53      0.165296  4 C  py         

 Vector   30  Occ=0.000000D+00  E= 3.590618D-01
              MO Center=  8.2D-09, -2.9D-08, -1.6D+00, r^2= 4.3D+00
   Bfn.  Coefficient  Atom+Function         Bfn.  Coefficient  Atom+Function  
  ----- ------------  ---------------      ----- ------------  ---------------
     7      1.408728  1 Mg px                11     -0.821372  1 Mg px         
     3     -0.271715  1 Mg px                16     -0.189249  1 Mg dxz        

 Vector   31  Occ=0.000000D+00  E= 4.032063D-01
              MO Center= -5.2D-09,  5.3D-08, -1.5D+00, r^2= 5.9D+00
   Bfn.  Coefficient  Atom+Function         Bfn.  Coefficient  Atom+Function  
  ----- ------------  ---------------      ----- ------------  ---------------
     8      1.282813  1 Mg py                12     -0.764386  1 Mg py         
    72     -0.747687  5 C  py                81     -0.718738  6 H  s          
    83      0.718739  7 H  s                 18     -0.647994  1 Mg dyz        
    57      0.418567  4 C  py                25      0.259711  2 O  s          
    40     -0.259711  3 O  s                  4     -0.226706  1 Mg py         

 Vector   32  Occ=0.000000D+00  E= 4.640052D-01
              MO Center=  1.0D-08, -6.3D-09, -1.4D+00, r^2= 4.4D+00
   Bfn.  Coefficient  Atom+Function         Bfn.  Coefficient  Atom+Function  
  ----- ------------  ---------------      ----- ------------  ---------------
    55      1.039425  4 C  s                  9      1.021183  1 Mg pz         
    70     -0.758540  5 C  s                 14      0.729604  1 Mg dxx        
    13     -0.707725  1 Mg pz                 6      0.649544  1 Mg s          
    10     -0.592508  1 Mg s                 19     -0.421341  1 Mg dzz        
    73      0.415224  5 C  pz                25     -0.201065  2 O  s          

 Vector   33  Occ=0.000000D+00  E= 4.947139D-01
              MO Center=  5.3D-10,  6.1D-09,  1.6D+00, r^2= 3.9D+00
   Bfn.  Coefficient  Atom+Function         Bfn.  Coefficient  Atom+Function  
  ----- ------------  ---------------      ----- ------------  ---------------
    55      4.302307  4 C  s                 70     -2.990045  5 C  s          
    73      2.689198  5 C  pz                58      1.742599  4 C  pz         
    25     -0.566350  2 O  s                 40     -0.566350  3 O  s          
    27     -0.292436  2 O  py                42      0.292436  3 O  py         
    28     -0.280593  2 O  pz                43     -0.280593  3 O  pz         

 Vector   34  Occ=0.000000D+00  E= 5.314919D-01
              MO Center=  5.2D-09,  3.9D-08, -1.6D+00, r^2= 2.8D+00
   Bfn.  Coefficient  Atom+Function         Bfn.  Coefficient  Atom+Function  
  ----- ------------  ---------------      ----- ------------  ---------------
    15      1.839556  1 Mg dxy               26      0.183193  2 O  px         
    41     -0.183193  3 O  px         


 center of mass
 --------------
 x =   0.00000000 y =   0.00000000 z =  -0.11433758

 moments of inertia (a.u.)
 ------------------
         591.119585027575           0.000000000000           0.000000000000
           0.000000000000         441.857341447479           0.000000000000
           0.000000000000           0.000000000000         149.262243580096

  Mulliken analysis of the total density
  --------------------------------------

    Atom       Charge   Shell Charges
 -----------   ------   -------------------------------------------------------
    1 Mg  12    10.50   2.00  2.00  5.98  0.18  0.18  0.02  0.06  0.08
    2 O    8     8.97   2.00  0.86  2.88  1.07  2.14  0.02
    3 O    8     8.97   2.00  0.86  2.88  1.07  2.14  0.02
    4 C    6     5.10   2.00  0.68  1.80  0.25  0.25  0.12
    5 C    6     6.74   2.00  0.62  2.07  0.62  1.37  0.06
    6 H    1     0.86   0.52  0.34
    7 H    1     0.86   0.52  0.34

       Multipole analysis of the density wrt the origin
       ------------------------------------------------

     L   x y z        total         open         nuclear
     -   - - -        -----         ----         -------
     0   0 0 0      0.000000      0.000000     42.000000

     1   1 0 0      0.000000      0.000000      0.000000
     1   0 1 0      0.000000      0.000000      0.000000
     1   0 0 1     -5.421506      0.000000      0.000000

     2   2 0 0    -22.500204      0.000000      0.000000
     2   1 1 0      0.000000      0.000000      0.000000
     2   1 0 1      0.000000      0.000000      0.000000
     2   0 2 0    -29.347460      0.000000     77.702320
     2   0 1 1      0.000001      0.000000      0.000000
     2   0 0 2     -8.252183      0.000000    243.895748


 Parallel integral file used      71 records with       0 large values

                              NWChem Gradients Module
                              -----------------------



  wavefunction    =   RHF     

nuclear repulsion gradient  
     0.000000     0.000000    18.766246
     0.000000    15.786782     0.374146
     0.000000   -15.786782     0.374146
     0.000000     0.000000    -5.963086
     0.000000     0.000000   -10.058202
     0.000000     1.659115    -1.746625
     0.000000    -1.659115    -1.746625

weighted density gradient  
     0.000000     0.000000     0.009082
     0.000000     0.237354     0.129770
     0.000000    -0.237354     0.129770
     0.000000     0.000000     0.074447
     0.000000     0.000000    -0.177186
     0.000000     0.163674    -0.082942
     0.000000    -0.163674    -0.082942

kinetic energy gradient  
     0.000000     0.000000   -34.490740
     0.000000   -32.464723    -1.637542
     0.000000    32.464723    -1.637543
     0.000000    -0.000001     5.914942
     0.000000     0.000000    23.669175
     0.000000    -4.765666     4.090854
     0.000000     4.765667     4.090854

2-electron gradient  
     0.000000     0.000000    15.712533
     0.000000    16.428158     1.138471
     0.000000   -16.428159     1.138472
     0.000000     0.000001     0.016443
     0.000000     0.000000   -13.461722
     0.000000     2.960047    -2.272099
     0.000000    -2.960047    -2.272099

nuclear-cosmo charge gradient  
     0.000000     0.000000    -0.493875
     0.000000     0.193876     0.291718
     0.000000    -0.193876     0.291718
     0.000000     0.000000     0.120968
     0.000000     0.000000    -0.197154
     0.000000     0.005306    -0.006687
     0.000000    -0.005306    -0.006687

electron-cosmo charge gradient  
     0.000000     0.000000     0.568349
     0.000000    -0.191406    -0.337803
     0.000000     0.191406    -0.337803
     0.000000     0.000000    -0.129419
     0.000000     0.000000     0.205641
     0.000000    -0.021634     0.015518
     0.000000     0.021634     0.015518

cosmo charge-cosmo charge gradient  
     0.000000     0.000000    -0.013915
     0.000000    -0.000903     0.005982
     0.000000     0.000903     0.005982
     0.000000     0.000000     0.002098
     0.000000     0.000000    -0.000108
     0.000000     0.000016    -0.000020
     0.000000    -0.000016    -0.000020

total RHF gradient
     0.000000     0.000000     0.057680
     0.000000    -0.010862    -0.035258
     0.000000     0.010862    -0.035258
     0.000000     0.000000     0.036392
     0.000000     0.000000    -0.019556
     0.000000     0.000859    -0.002000
     0.000000    -0.000859    -0.002000



                         RHF ENERGY GRADIENTS

    atom               coordinates                        gradient
                 x          y          z           x          y          z
   1 mg      0.000000   0.000000  -2.966741    0.000000   0.000000   0.057680
   2 o       0.000000  -2.114790  -0.224240    0.000000  -0.010862  -0.035258
   3 o       0.000000   2.114790  -0.224240    0.000000   0.010862  -0.035258
   4 c       0.000000   0.000000   1.218908    0.000000   0.000000   0.036392
   5 c       0.000000   0.000000   3.729953    0.000000   0.000000  -0.019556
   6 h       0.000000  -1.752848   4.747782    0.000000   0.000859  -0.002000
   7 h       0.000000   1.752848   4.747782    0.000000  -0.000859  -0.002000

                 ----------------------------------------
                 |  Time  |  1-e(secs)   |  2-e(secs)   |
                 ----------------------------------------
                 |  CPU   |       0.17   |       2.99   |
                 ----------------------------------------
                 |  WALL  |       0.17   |       3.00   |
                 ----------------------------------------

 Task  times  cpu:       12.1s     wall:       13.2s
 Summary of allocated global arrays
-----------------------------------
  No active global arrays



                         GA Statistics for process    0
                         ------------------------------

       create   destroy   get      put      acc     scatter   gather  read&inc
calls:  775      775     3.18e+04 2757     7994        0        0       95     
number of processes/call 1.18e+00 1.37e+00 1.09e+00 0.00e+00 0.00e+00
bytes total:             3.46e+07 1.45e+07 8.07e+06 0.00e+00 0.00e+00 7.60e+02
bytes remote:            1.33e+07 2.40e+06 4.42e+06 0.00e+00 0.00e+00 0.00e+00
Max memory consumed for GA by this process: 294824 bytes
MA_summarize_allocated_blocks: starting scan ...
MA_summarize_allocated_blocks: scan completed: 0 heap blocks, 0 stack blocks
MA usage statistics:

	allocation statistics:
					      heap	     stack
					      ----	     -----
	current number of blocks	         0	         0
	maximum number of blocks	        21	        31
	current total bytes		         0	         0
	maximum total bytes		  25725144	  32931440
	maximum total K-bytes		     25726	     32932
	maximum total M-bytes		        26	        33


                                NWChem Input Module
                                -------------------





                                     CITATION
                                     --------
                Please cite the following reference when publishing
                           results obtained with NWChem:

                 M. Valiev, E.J. Bylaska, N. Govind, K. Kowalski,
              T.P. Straatsma, H.J.J. van Dam, D. Wang, J. Nieplocha,
                        E. Apra, T.L. Windus, W.A. de Jong
                 "NWChem: a comprehensive and scalable open-source
                  solution for large scale molecular simulations"
                      Comput. Phys. Commun. 181, 1477 (2010)
                           doi:10.1016/j.cpc.2010.04.018

                              AUTHORS & CONTRIBUTORS
                              ----------------------
          E. Apra, E. J. Bylaska, W. A. de Jong, N. Govind, K. Kowalski,
       T. P. Straatsma, M. Valiev, H. J. J. van Dam, D. Wang, T. L. Windus,
        J. Hammond, J. Autschbach, K. Bhaskaran-Nair, J. Brabec, K. Lopata,
     F. Aquino, S. Hirata, M. T. Hackler, T. Risthaus, M. Malagoli, J. Mullin,
        P. Nichols, R. Peverati, J. Pittner, Y. Zhao, P.-D. Fan, A. Fonari,
     R. J. Harrison, M. Dupuis, D. Silverstein, D. M. A. Smith, J. Nieplocha,
       V. Tipparaju, M. Krishnan, B. E. Van Kuiken,  A. Vazquez-Mayagoitia,
        L. Jensen, M. Swart, Q. Wu, T. Van Voorhis, A. A. Auer, M. Nooijen,
      L. D. Crosby, E. Brown, G. Cisneros, G. I. Fann, H. Fruchtl, J. Garza,
   K. Hirao, R. Kendall, J. A. Nichols, K. Tsemekhman, K. Wolinski, J. Anchell,
       D. Bernholdt, P. Borowski, T. Clark, D. Clerc, H. Dachsel, M. Deegan,
        K. Dyall, D. Elwood, E. Glendening, M. Gutowski, A. Hess, J. Jaffe,
   B. Johnson, J. Ju, R. Kobayashi, R. Kutteh, Z. Lin, R. Littlefield, X. Long,
        B. Meng,T. Nakajima, S. Niu, L. Pollack, M. Rosing, K. Glaesemann,
      G. Sandrone, M. Stave, H. Taylor, G. Thomas, J. H. van Lenthe, A. Wong,
                                     Z.Zhang.

 Total times  cpu:       12.2s     wall:       14.3s
